%YAML 1.1
%TAG !u! tag:unity3d.com,2011:
--- !u!74 &7400000
AnimationClip:
  m_ObjectHideFlags: 0
  m_CorrespondingSourceObject: {fileID: 0}
  m_PrefabInstance: {fileID: 0}
  m_PrefabAsset: {fileID: 0}
  m_Name: annie-1-anim
  serializedVersion: 6
  m_Legacy: 0
  m_Compressed: 0
  m_UseHighQualityCurve: 1
  m_RotationCurves: []
  m_CompressedRotationCurves: []
  m_EulerCurves: []
  m_PositionCurves: []
  m_ScaleCurves: []
  m_FloatCurves: []
  m_PPtrCurves:
  - curve:
    - time: 0
      value: {fileID: 5966151315487096265, guid: 716b6181617bba240a5b2fa6dd9e0cc4,
        type: 3}
    - time: 0.083333336
      value: {fileID: -3283704965568641011, guid: 716b6181617bba240a5b2fa6dd9e0cc4,
        type: 3}
    - time: 0.16666667
      value: {fileID: 2707844727590857023, guid: 716b6181617bba240a5b2fa6dd9e0cc4,
        type: 3}
    - time: 0.25
      value: {fileID: -1911234500209108586, guid: 716b6181617bba240a5b2fa6dd9e0cc4,
        type: 3}
    - time: 0.33333334
      value: {fileID: -3452139326106401682, guid: 716b6181617bba240a5b2fa6dd9e0cc4,
        type: 3}
    - time: 0.41666666
      value: {fileID: 5398551229203407457, guid: 716b6181617bba240a5b2fa6dd9e0cc4,
        type: 3}
    - time: 0.5
      value: {fileID: 5715872834586659390, guid: 716b6181617bba240a5b2fa6dd9e0cc4,
        type: 3}
    - time: 0.5833333
      value: {fileID: -4436618986094912078, guid: 716b6181617bba240a5b2fa6dd9e0cc4,
        type: 3}
    - time: 0.6666667
      value: {fileID: 8083780843460727573, guid: 716b6181617bba240a5b2fa6dd9e0cc4,
        type: 3}
    - time: 0.75
      value: {fileID: -58385305531636970, guid: 716b6181617bba240a5b2fa6dd9e0cc4,
        type: 3}
    - time: 0.8333333
      value: {fileID: 654694840955460166, guid: 716b6181617bba240a5b2fa6dd9e0cc4,
        type: 3}
    - time: 0.9166667
      value: {fileID: -6575402791052981829, guid: 716b6181617bba240a5b2fa6dd9e0cc4,
        type: 3}
    - time: 1
      value: {fileID: 3707594311748189478, guid: 716b6181617bba240a5b2fa6dd9e0cc4,
        type: 3}
    - time: 1.0833334
      value: {fileID: 4330556049312769211, guid: 716b6181617bba240a5b2fa6dd9e0cc4,
        type: 3}
    attribute: m_Sprite
    path: 
    classID: 212
    script: {fileID: 0}
  - curve:
    - time: 0
      value: {fileID: 5966151315487096265, guid: 716b6181617bba240a5b2fa6dd9e0cc4,
        type: 3}
    - time: 0.083333336
      value: {fileID: -3283704965568641011, guid: 716b6181617bba240a5b2fa6dd9e0cc4,
        type: 3}
    - time: 0.16666667
      value: {fileID: 2707844727590857023, guid: 716b6181617bba240a5b2fa6dd9e0cc4,
        type: 3}
    - time: 0.25
      value: {fileID: -1911234500209108586, guid: 716b6181617bba240a5b2fa6dd9e0cc4,
        type: 3}
    - time: 0.33333334
      value: {fileID: -3452139326106401682, guid: 716b6181617bba240a5b2fa6dd9e0cc4,
        type: 3}
    - time: 0.41666666
      value: {fileID: 5398551229203407457, guid: 716b6181617bba240a5b2fa6dd9e0cc4,
        type: 3}
    - time: 0.5
      value: {fileID: 5715872834586659390, guid: 716b6181617bba240a5b2fa6dd9e0cc4,
        type: 3}
    - time: 0.5833333
      value: {fileID: -4436618986094912078, guid: 716b6181617bba240a5b2fa6dd9e0cc4,
        type: 3}
    - time: 0.6666667
      value: {fileID: 8083780843460727573, guid: 716b6181617bba240a5b2fa6dd9e0cc4,
        type: 3}
    - time: 0.75
      value: {fileID: -58385305531636970, guid: 716b6181617bba240a5b2fa6dd9e0cc4,
        type: 3}
    - time: 0.8333333
      value: {fileID: 654694840955460166, guid: 716b6181617bba240a5b2fa6dd9e0cc4,
        type: 3}
    - time: 0.9166667
      value: {fileID: -6575402791052981829, guid: 716b6181617bba240a5b2fa6dd9e0cc4,
        type: 3}
    - time: 1
      value: {fileID: 3707594311748189478, guid: 716b6181617bba240a5b2fa6dd9e0cc4,
        type: 3}
    - time: 1.0833334
      value: {fileID: 4330556049312769211, guid: 716b6181617bba240a5b2fa6dd9e0cc4,
        type: 3}
    - time: 1.1666667
      value: {fileID: 5966151315487096265, guid: 716b6181617bba240a5b2fa6dd9e0cc4,
        type: 3}
    attribute: m_Sprite
    path: 
    classID: 114
    script: {fileID: 11500000, guid: fe87c0e1cc204ed48ad3b37840f39efc, type: 3}
  m_SampleRate: 12
  m_WrapMode: 0
  m_Bounds:
    m_Center: {x: 0, y: 0, z: 0}
    m_Extent: {x: 0, y: 0, z: 0}
  m_ClipBindingConstant:
    genericBindings:
    - serializedVersion: 2
      path: 0
      attribute: 0
      script: {fileID: 0}
      typeID: 212
      customType: 23
      isPPtrCurve: 1
    - serializedVersion: 2
      path: 0
      attribute: 2015549526
      script: {fileID: 11500000, guid: fe87c0e1cc204ed48ad3b37840f39efc, type: 3}
      typeID: 114
      customType: 0
      isPPtrCurve: 1
    pptrCurveMapping:
    - {fileID: 5966151315487096265, guid: 716b6181617bba240a5b2fa6dd9e0cc4, type: 3}
    - {fileID: -3283704965568641011, guid: 716b6181617bba240a5b2fa6dd9e0cc4, type: 3}
    - {fileID: 2707844727590857023, guid: 716b6181617bba240a5b2fa6dd9e0cc4, type: 3}
    - {fileID: -1911234500209108586, guid: 716b6181617bba240a5b2fa6dd9e0cc4, type: 3}
    - {fileID: -3452139326106401682, guid: 716b6181617bba240a5b2fa6dd9e0cc4, type: 3}
    - {fileID: 5398551229203407457, guid: 716b6181617bba240a5b2fa6dd9e0cc4, type: 3}
    - {fileID: 5715872834586659390, guid: 716b6181617bba240a5b2fa6dd9e0cc4, type: 3}
    - {fileID: -4436618986094912078, guid: 716b6181617bba240a5b2fa6dd9e0cc4, type: 3}
    - {fileID: 8083780843460727573, guid: 716b6181617bba240a5b2fa6dd9e0cc4, type: 3}
    - {fileID: -58385305531636970, guid: 716b6181617bba240a5b2fa6dd9e0cc4, type: 3}
    - {fileID: 654694840955460166, guid: 716b6181617bba240a5b2fa6dd9e0cc4, type: 3}
    - {fileID: -6575402791052981829, guid: 716b6181617bba240a5b2fa6dd9e0cc4, type: 3}
    - {fileID: 3707594311748189478, guid: 716b6181617bba240a5b2fa6dd9e0cc4, type: 3}
    - {fileID: 4330556049312769211, guid: 716b6181617bba240a5b2fa6dd9e0cc4, type: 3}
    - {fileID: 5966151315487096265, guid: 716b6181617bba240a5b2fa6dd9e0cc4, type: 3}
    - {fileID: -3283704965568641011, guid: 716b6181617bba240a5b2fa6dd9e0cc4, type: 3}
    - {fileID: 2707844727590857023, guid: 716b6181617bba240a5b2fa6dd9e0cc4, type: 3}
    - {fileID: -1911234500209108586, guid: 716b6181617bba240a5b2fa6dd9e0cc4, type: 3}
    - {fileID: -3452139326106401682, guid: 716b6181617bba240a5b2fa6dd9e0cc4, type: 3}
    - {fileID: 5398551229203407457, guid: 716b6181617bba240a5b2fa6dd9e0cc4, type: 3}
    - {fileID: 5715872834586659390, guid: 716b6181617bba240a5b2fa6dd9e0cc4, type: 3}
    - {fileID: -4436618986094912078, guid: 716b6181617bba240a5b2fa6dd9e0cc4, type: 3}
    - {fileID: 8083780843460727573, guid: 716b6181617bba240a5b2fa6dd9e0cc4, type: 3}
    - {fileID: -58385305531636970, guid: 716b6181617bba240a5b2fa6dd9e0cc4, type: 3}
    - {fileID: 654694840955460166, guid: 716b6181617bba240a5b2fa6dd9e0cc4, type: 3}
    - {fileID: -6575402791052981829, guid: 716b6181617bba240a5b2fa6dd9e0cc4, type: 3}
    - {fileID: 3707594311748189478, guid: 716b6181617bba240a5b2fa6dd9e0cc4, type: 3}
    - {fileID: 4330556049312769211, guid: 716b6181617bba240a5b2fa6dd9e0cc4, type: 3}
    - {fileID: 5966151315487096265, guid: 716b6181617bba240a5b2fa6dd9e0cc4, type: 3}
  m_AnimationClipSettings:
    serializedVersion: 2
    m_AdditiveReferencePoseClip: {fileID: 0}
    m_AdditiveReferencePoseTime: 0
    m_StartTime: 0
    m_StopTime: 1.2500001
    m_OrientationOffsetY: 0
    m_Level: 0
    m_CycleOffset: 0
    m_HasAdditiveReferencePose: 0
    m_LoopTime: 1
    m_LoopBlend: 0
    m_LoopBlendOrientation: 0
    m_LoopBlendPositionY: 0
    m_LoopBlendPositionXZ: 0
    m_KeepOriginalOrientation: 0
    m_KeepOriginalPositionY: 1
    m_KeepOriginalPositionXZ: 0
    m_HeightFromFeet: 0
    m_Mirror: 0
  m_EditorCurves: []
  m_EulerEditorCurves: []
  m_HasGenericRootTransform: 0
  m_HasMotionFloatCurves: 0
  m_Events: []
