%YAML 1.1
%TAG !u! tag:unity3d.com,2011:
--- !u!74 &7400000
AnimationClip:
  m_ObjectHideFlags: 0
  m_CorrespondingSourceObject: {fileID: 0}
  m_PrefabInstance: {fileID: 0}
  m_PrefabAsset: {fileID: 0}
  m_Name: female-3-anim
  serializedVersion: 6
  m_Legacy: 0
  m_Compressed: 0
  m_UseHighQualityCurve: 1
  m_RotationCurves: []
  m_CompressedRotationCurves: []
  m_EulerCurves: []
  m_PositionCurves: []
  m_ScaleCurves: []
  m_FloatCurves: []
  m_PPtrCurves:
  - curve:
    - time: 0
      value: {fileID: -205472489046376838, guid: 189c94bc2b672214cb8381e824273979,
        type: 3}
    - time: 0.083333336
      value: {fileID: -4239199365480003015, guid: 189c94bc2b672214cb8381e824273979,
        type: 3}
    - time: 0.16666667
      value: {fileID: 4146963137474069681, guid: 189c94bc2b672214cb8381e824273979,
        type: 3}
    - time: 0.25
      value: {fileID: -5455940781521878389, guid: 189c94bc2b672214cb8381e824273979,
        type: 3}
    - time: 0.33333334
      value: {fileID: 5967016709720396050, guid: 189c94bc2b672214cb8381e824273979,
        type: 3}
    - time: 0.41666666
      value: {fileID: 1181609767053058878, guid: 189c94bc2b672214cb8381e824273979,
        type: 3}
    - time: 0.5
      value: {fileID: -7846505388055583731, guid: 189c94bc2b672214cb8381e824273979,
        type: 3}
    - time: 0.5833333
      value: {fileID: -6906361143997634092, guid: 189c94bc2b672214cb8381e824273979,
        type: 3}
    - time: 0.6666667
      value: {fileID: 6455349464144754506, guid: 189c94bc2b672214cb8381e824273979,
        type: 3}
    - time: 0.75
      value: {fileID: 434650640197270412, guid: 189c94bc2b672214cb8381e824273979,
        type: 3}
    - time: 0.8333333
      value: {fileID: -2131745808175726484, guid: 189c94bc2b672214cb8381e824273979,
        type: 3}
    - time: 0.9166667
      value: {fileID: -9097912090164223861, guid: 189c94bc2b672214cb8381e824273979,
        type: 3}
    - time: 1
      value: {fileID: -2256122351272100050, guid: 189c94bc2b672214cb8381e824273979,
        type: 3}
    - time: 1.0833334
      value: {fileID: -3566888748625739425, guid: 189c94bc2b672214cb8381e824273979,
        type: 3}
    - time: 1.1666666
      value: {fileID: -6172132501086561368, guid: 189c94bc2b672214cb8381e824273979,
        type: 3}
    attribute: m_Sprite
    path: 
    classID: 212
    script: {fileID: 0}
  - curve:
    - time: 0
      value: {fileID: -205472489046376838, guid: 189c94bc2b672214cb8381e824273979,
        type: 3}
    - time: 0.083333336
      value: {fileID: -4239199365480003015, guid: 189c94bc2b672214cb8381e824273979,
        type: 3}
    - time: 0.16666667
      value: {fileID: 4146963137474069681, guid: 189c94bc2b672214cb8381e824273979,
        type: 3}
    - time: 0.25
      value: {fileID: -5455940781521878389, guid: 189c94bc2b672214cb8381e824273979,
        type: 3}
    - time: 0.33333334
      value: {fileID: 5967016709720396050, guid: 189c94bc2b672214cb8381e824273979,
        type: 3}
    - time: 0.41666666
      value: {fileID: 1181609767053058878, guid: 189c94bc2b672214cb8381e824273979,
        type: 3}
    - time: 0.5
      value: {fileID: -7846505388055583731, guid: 189c94bc2b672214cb8381e824273979,
        type: 3}
    - time: 0.5833333
      value: {fileID: -6906361143997634092, guid: 189c94bc2b672214cb8381e824273979,
        type: 3}
    - time: 0.6666667
      value: {fileID: 6455349464144754506, guid: 189c94bc2b672214cb8381e824273979,
        type: 3}
    - time: 0.75
      value: {fileID: 434650640197270412, guid: 189c94bc2b672214cb8381e824273979,
        type: 3}
    - time: 0.8333333
      value: {fileID: -2131745808175726484, guid: 189c94bc2b672214cb8381e824273979,
        type: 3}
    - time: 0.9166667
      value: {fileID: -9097912090164223861, guid: 189c94bc2b672214cb8381e824273979,
        type: 3}
    - time: 1
      value: {fileID: -2256122351272100050, guid: 189c94bc2b672214cb8381e824273979,
        type: 3}
    - time: 1.0833334
      value: {fileID: -3566888748625739425, guid: 189c94bc2b672214cb8381e824273979,
        type: 3}
    - time: 1.1666666
      value: {fileID: -6172132501086561368, guid: 189c94bc2b672214cb8381e824273979,
        type: 3}
    - time: 1.25
      value: {fileID: -205472489046376838, guid: 189c94bc2b672214cb8381e824273979,
        type: 3}
    attribute: m_Sprite
    path: 
    classID: 114
    script: {fileID: 11500000, guid: fe87c0e1cc204ed48ad3b37840f39efc, type: 3}
  m_SampleRate: 12
  m_WrapMode: 0
  m_Bounds:
    m_Center: {x: 0, y: 0, z: 0}
    m_Extent: {x: 0, y: 0, z: 0}
  m_ClipBindingConstant:
    genericBindings:
    - serializedVersion: 2
      path: 0
      attribute: 0
      script: {fileID: 0}
      typeID: 212
      customType: 23
      isPPtrCurve: 1
    - serializedVersion: 2
      path: 0
      attribute: 2015549526
      script: {fileID: 11500000, guid: fe87c0e1cc204ed48ad3b37840f39efc, type: 3}
      typeID: 114
      customType: 0
      isPPtrCurve: 1
    pptrCurveMapping:
    - {fileID: -205472489046376838, guid: 189c94bc2b672214cb8381e824273979, type: 3}
    - {fileID: -4239199365480003015, guid: 189c94bc2b672214cb8381e824273979, type: 3}
    - {fileID: 4146963137474069681, guid: 189c94bc2b672214cb8381e824273979, type: 3}
    - {fileID: -5455940781521878389, guid: 189c94bc2b672214cb8381e824273979, type: 3}
    - {fileID: 5967016709720396050, guid: 189c94bc2b672214cb8381e824273979, type: 3}
    - {fileID: 1181609767053058878, guid: 189c94bc2b672214cb8381e824273979, type: 3}
    - {fileID: -7846505388055583731, guid: 189c94bc2b672214cb8381e824273979, type: 3}
    - {fileID: -6906361143997634092, guid: 189c94bc2b672214cb8381e824273979, type: 3}
    - {fileID: 6455349464144754506, guid: 189c94bc2b672214cb8381e824273979, type: 3}
    - {fileID: 434650640197270412, guid: 189c94bc2b672214cb8381e824273979, type: 3}
    - {fileID: -2131745808175726484, guid: 189c94bc2b672214cb8381e824273979, type: 3}
    - {fileID: -9097912090164223861, guid: 189c94bc2b672214cb8381e824273979, type: 3}
    - {fileID: -2256122351272100050, guid: 189c94bc2b672214cb8381e824273979, type: 3}
    - {fileID: -3566888748625739425, guid: 189c94bc2b672214cb8381e824273979, type: 3}
    - {fileID: -6172132501086561368, guid: 189c94bc2b672214cb8381e824273979, type: 3}
    - {fileID: -205472489046376838, guid: 189c94bc2b672214cb8381e824273979, type: 3}
    - {fileID: -4239199365480003015, guid: 189c94bc2b672214cb8381e824273979, type: 3}
    - {fileID: 4146963137474069681, guid: 189c94bc2b672214cb8381e824273979, type: 3}
    - {fileID: -5455940781521878389, guid: 189c94bc2b672214cb8381e824273979, type: 3}
    - {fileID: 5967016709720396050, guid: 189c94bc2b672214cb8381e824273979, type: 3}
    - {fileID: 1181609767053058878, guid: 189c94bc2b672214cb8381e824273979, type: 3}
    - {fileID: -7846505388055583731, guid: 189c94bc2b672214cb8381e824273979, type: 3}
    - {fileID: -6906361143997634092, guid: 189c94bc2b672214cb8381e824273979, type: 3}
    - {fileID: 6455349464144754506, guid: 189c94bc2b672214cb8381e824273979, type: 3}
    - {fileID: 434650640197270412, guid: 189c94bc2b672214cb8381e824273979, type: 3}
    - {fileID: -2131745808175726484, guid: 189c94bc2b672214cb8381e824273979, type: 3}
    - {fileID: -9097912090164223861, guid: 189c94bc2b672214cb8381e824273979, type: 3}
    - {fileID: -2256122351272100050, guid: 189c94bc2b672214cb8381e824273979, type: 3}
    - {fileID: -3566888748625739425, guid: 189c94bc2b672214cb8381e824273979, type: 3}
    - {fileID: -6172132501086561368, guid: 189c94bc2b672214cb8381e824273979, type: 3}
    - {fileID: -205472489046376838, guid: 189c94bc2b672214cb8381e824273979, type: 3}
  m_AnimationClipSettings:
    serializedVersion: 2
    m_AdditiveReferencePoseClip: {fileID: 0}
    m_AdditiveReferencePoseTime: 0
    m_StartTime: 0
    m_StopTime: 1.3333334
    m_OrientationOffsetY: 0
    m_Level: 0
    m_CycleOffset: 0
    m_HasAdditiveReferencePose: 0
    m_LoopTime: 1
    m_LoopBlend: 0
    m_LoopBlendOrientation: 0
    m_LoopBlendPositionY: 0
    m_LoopBlendPositionXZ: 0
    m_KeepOriginalOrientation: 0
    m_KeepOriginalPositionY: 1
    m_KeepOriginalPositionXZ: 0
    m_HeightFromFeet: 0
    m_Mirror: 0
  m_EditorCurves: []
  m_EulerEditorCurves: []
  m_HasGenericRootTransform: 0
  m_HasMotionFloatCurves: 0
  m_Events: []
