%YAML 1.1
%TAG !u! tag:unity3d.com,2011:
--- !u!74 &7400000
AnimationClip:
  m_ObjectHideFlags: 0
  m_CorrespondingSourceObject: {fileID: 0}
  m_PrefabInstance: {fileID: 0}
  m_PrefabAsset: {fileID: 0}
  m_Name: CoolerButton
  serializedVersion: 6
  m_Legacy: 0
  m_Compressed: 0
  m_UseHighQualityCurve: 1
  m_RotationCurves: []
  m_CompressedRotationCurves: []
  m_EulerCurves: []
  m_PositionCurves: []
  m_ScaleCurves: []
  m_FloatCurves: []
  m_PPtrCurves:
  - curve:
    - time: 0
      value: {fileID: -6738553594393771814, guid: ed17187c9864fe2499eb0cdc78214121,
        type: 3}
    - time: 0.06666667
      value: {fileID: -4778514220975552685, guid: ed17187c9864fe2499eb0cdc78214121,
        type: 3}
    - time: 0.13333334
      value: {fileID: 171065351152435855, guid: ed17187c9864fe2499eb0cdc78214121,
        type: 3}
    - time: 0.2
      value: {fileID: 2727551946581442338, guid: ed17187c9864fe2499eb0cdc78214121,
        type: 3}
    - time: 0.26666668
      value: {fileID: 5597875146105232872, guid: ed17187c9864fe2499eb0cdc78214121,
        type: 3}
    - time: 0.33333334
      value: {fileID: -6300290906724365126, guid: ed17187c9864fe2499eb0cdc78214121,
        type: 3}
    - time: 0.4
      value: {fileID: 3495956387033825076, guid: ed17187c9864fe2499eb0cdc78214121,
        type: 3}
    - time: 0.46666667
      value: {fileID: 4318805316360657263, guid: ed17187c9864fe2499eb0cdc78214121,
        type: 3}
    - time: 0.53333336
      value: {fileID: 154344568851804634, guid: ed17187c9864fe2499eb0cdc78214121,
        type: 3}
    - time: 0.6
      value: {fileID: -7394690616138048300, guid: ed17187c9864fe2499eb0cdc78214121,
        type: 3}
    - time: 0.6666667
      value: {fileID: 7203724091480333154, guid: ed17187c9864fe2499eb0cdc78214121,
        type: 3}
    - time: 0.73333335
      value: {fileID: 1755814603306373265, guid: ed17187c9864fe2499eb0cdc78214121,
        type: 3}
    - time: 0.8
      value: {fileID: 2877748850553060101, guid: ed17187c9864fe2499eb0cdc78214121,
        type: 3}
    - time: 0.8666667
      value: {fileID: -9041636085342495786, guid: ed17187c9864fe2499eb0cdc78214121,
        type: 3}
    - time: 0.93333334
      value: {fileID: 4706080421002862410, guid: ed17187c9864fe2499eb0cdc78214121,
        type: 3}
    - time: 1
      value: {fileID: 7661157463060024070, guid: ed17187c9864fe2499eb0cdc78214121,
        type: 3}
    - time: 1.0666667
      value: {fileID: 8719503773218359775, guid: ed17187c9864fe2499eb0cdc78214121,
        type: 3}
    - time: 1.1333333
      value: {fileID: 7745759965770192941, guid: ed17187c9864fe2499eb0cdc78214121,
        type: 3}
    - time: 1.2
      value: {fileID: 6958639633401541570, guid: ed17187c9864fe2499eb0cdc78214121,
        type: 3}
    - time: 1.2666667
      value: {fileID: 5918488371926567548, guid: ed17187c9864fe2499eb0cdc78214121,
        type: 3}
    - time: 1.3333334
      value: {fileID: -4733668826127782634, guid: ed17187c9864fe2499eb0cdc78214121,
        type: 3}
    - time: 1.4
      value: {fileID: -4649018441836406085, guid: ed17187c9864fe2499eb0cdc78214121,
        type: 3}
    - time: 1.4666667
      value: {fileID: -9133374226539404269, guid: ed17187c9864fe2499eb0cdc78214121,
        type: 3}
    - time: 1.5333333
      value: {fileID: 9124433111081798927, guid: ed17187c9864fe2499eb0cdc78214121,
        type: 3}
    - time: 1.6
      value: {fileID: 8976930592108426808, guid: ed17187c9864fe2499eb0cdc78214121,
        type: 3}
    attribute: m_Sprite
    path: 
    classID: 114
    script: {fileID: 11500000, guid: fe87c0e1cc204ed48ad3b37840f39efc, type: 3}
  m_SampleRate: 60
  m_WrapMode: 0
  m_Bounds:
    m_Center: {x: 0, y: 0, z: 0}
    m_Extent: {x: 0, y: 0, z: 0}
  m_ClipBindingConstant:
    genericBindings:
    - serializedVersion: 2
      path: 0
      attribute: 2015549526
      script: {fileID: 11500000, guid: fe87c0e1cc204ed48ad3b37840f39efc, type: 3}
      typeID: 114
      customType: 0
      isPPtrCurve: 1
    pptrCurveMapping:
    - {fileID: -6738553594393771814, guid: ed17187c9864fe2499eb0cdc78214121, type: 3}
    - {fileID: -4778514220975552685, guid: ed17187c9864fe2499eb0cdc78214121, type: 3}
    - {fileID: 171065351152435855, guid: ed17187c9864fe2499eb0cdc78214121, type: 3}
    - {fileID: 2727551946581442338, guid: ed17187c9864fe2499eb0cdc78214121, type: 3}
    - {fileID: 5597875146105232872, guid: ed17187c9864fe2499eb0cdc78214121, type: 3}
    - {fileID: -6300290906724365126, guid: ed17187c9864fe2499eb0cdc78214121, type: 3}
    - {fileID: 3495956387033825076, guid: ed17187c9864fe2499eb0cdc78214121, type: 3}
    - {fileID: 4318805316360657263, guid: ed17187c9864fe2499eb0cdc78214121, type: 3}
    - {fileID: 154344568851804634, guid: ed17187c9864fe2499eb0cdc78214121, type: 3}
    - {fileID: -7394690616138048300, guid: ed17187c9864fe2499eb0cdc78214121, type: 3}
    - {fileID: 7203724091480333154, guid: ed17187c9864fe2499eb0cdc78214121, type: 3}
    - {fileID: 1755814603306373265, guid: ed17187c9864fe2499eb0cdc78214121, type: 3}
    - {fileID: 2877748850553060101, guid: ed17187c9864fe2499eb0cdc78214121, type: 3}
    - {fileID: -9041636085342495786, guid: ed17187c9864fe2499eb0cdc78214121, type: 3}
    - {fileID: 4706080421002862410, guid: ed17187c9864fe2499eb0cdc78214121, type: 3}
    - {fileID: 7661157463060024070, guid: ed17187c9864fe2499eb0cdc78214121, type: 3}
    - {fileID: 8719503773218359775, guid: ed17187c9864fe2499eb0cdc78214121, type: 3}
    - {fileID: 7745759965770192941, guid: ed17187c9864fe2499eb0cdc78214121, type: 3}
    - {fileID: 6958639633401541570, guid: ed17187c9864fe2499eb0cdc78214121, type: 3}
    - {fileID: 5918488371926567548, guid: ed17187c9864fe2499eb0cdc78214121, type: 3}
    - {fileID: -4733668826127782634, guid: ed17187c9864fe2499eb0cdc78214121, type: 3}
    - {fileID: -4649018441836406085, guid: ed17187c9864fe2499eb0cdc78214121, type: 3}
    - {fileID: -9133374226539404269, guid: ed17187c9864fe2499eb0cdc78214121, type: 3}
    - {fileID: 9124433111081798927, guid: ed17187c9864fe2499eb0cdc78214121, type: 3}
    - {fileID: 8976930592108426808, guid: ed17187c9864fe2499eb0cdc78214121, type: 3}
  m_AnimationClipSettings:
    serializedVersion: 2
    m_AdditiveReferencePoseClip: {fileID: 0}
    m_AdditiveReferencePoseTime: 0
    m_StartTime: 0
    m_StopTime: 1.6166667
    m_OrientationOffsetY: 0
    m_Level: 0
    m_CycleOffset: 0
    m_HasAdditiveReferencePose: 0
    m_LoopTime: 0
    m_LoopBlend: 0
    m_LoopBlendOrientation: 0
    m_LoopBlendPositionY: 0
    m_LoopBlendPositionXZ: 0
    m_KeepOriginalOrientation: 0
    m_KeepOriginalPositionY: 1
    m_KeepOriginalPositionXZ: 0
    m_HeightFromFeet: 0
    m_Mirror: 0
  m_EditorCurves: []
  m_EulerEditorCurves: []
  m_HasGenericRootTransform: 0
  m_HasMotionFloatCurves: 0
  m_Events: []
