%YAML 1.1
%TAG !u! tag:unity3d.com,2011:
--- !u!74 &7400000
AnimationClip:
  m_ObjectHideFlags: 0
  m_CorrespondingSourceObject: {fileID: 0}
  m_PrefabInstance: {fileID: 0}
  m_PrefabAsset: {fileID: 0}
  m_Name: play-animation
  serializedVersion: 6
  m_Legacy: 0
  m_Compressed: 0
  m_UseHighQualityCurve: 1
  m_RotationCurves: []
  m_CompressedRotationCurves: []
  m_EulerCurves: []
  m_PositionCurves: []
  m_ScaleCurves: []
  m_FloatCurves: []
  m_PPtrCurves:
  - curve:
    - time: 0
      value: {fileID: 3794550611322748858, guid: d1a253c1c953eeb46a5413b6bde202de,
        type: 3}
    - time: 0.083333336
      value: {fileID: -7523842456613593634, guid: d1a253c1c953eeb46a5413b6bde202de,
        type: 3}
    - time: 0.16666667
      value: {fileID: -1739267129683835459, guid: d1a253c1c953eeb46a5413b6bde202de,
        type: 3}
    - time: 0.25
      value: {fileID: 7362165049825269961, guid: d1a253c1c953eeb46a5413b6bde202de,
        type: 3}
    - time: 0.33333334
      value: {fileID: -5289284389014261298, guid: d1a253c1c953eeb46a5413b6bde202de,
        type: 3}
    - time: 0.41666666
      value: {fileID: -4485404642170419156, guid: d1a253c1c953eeb46a5413b6bde202de,
        type: 3}
    - time: 0.5
      value: {fileID: 1654031133934927702, guid: d1a253c1c953eeb46a5413b6bde202de,
        type: 3}
    - time: 0.5833333
      value: {fileID: 2749220534027595985, guid: d1a253c1c953eeb46a5413b6bde202de,
        type: 3}
    - time: 0.6666667
      value: {fileID: -2507420485272454978, guid: d1a253c1c953eeb46a5413b6bde202de,
        type: 3}
    attribute: m_Sprite
    path: 
    classID: 212
    script: {fileID: 0}
  - curve:
    - time: 0
      value: {fileID: 3794550611322748858, guid: d1a253c1c953eeb46a5413b6bde202de,
        type: 3}
    - time: 0.083333336
      value: {fileID: -7523842456613593634, guid: d1a253c1c953eeb46a5413b6bde202de,
        type: 3}
    - time: 0.16666667
      value: {fileID: -1739267129683835459, guid: d1a253c1c953eeb46a5413b6bde202de,
        type: 3}
    - time: 0.25
      value: {fileID: 7362165049825269961, guid: d1a253c1c953eeb46a5413b6bde202de,
        type: 3}
    - time: 0.33333334
      value: {fileID: -5289284389014261298, guid: d1a253c1c953eeb46a5413b6bde202de,
        type: 3}
    - time: 0.41666666
      value: {fileID: -4485404642170419156, guid: d1a253c1c953eeb46a5413b6bde202de,
        type: 3}
    - time: 0.5
      value: {fileID: 1654031133934927702, guid: d1a253c1c953eeb46a5413b6bde202de,
        type: 3}
    - time: 0.5833333
      value: {fileID: 2749220534027595985, guid: d1a253c1c953eeb46a5413b6bde202de,
        type: 3}
    - time: 0.6666667
      value: {fileID: -2507420485272454978, guid: d1a253c1c953eeb46a5413b6bde202de,
        type: 3}
    - time: 0.75
      value: {fileID: 3794550611322748858, guid: d1a253c1c953eeb46a5413b6bde202de,
        type: 3}
    attribute: m_Sprite
    path: 
    classID: 114
    script: {fileID: 11500000, guid: fe87c0e1cc204ed48ad3b37840f39efc, type: 3}
  m_SampleRate: 12
  m_WrapMode: 0
  m_Bounds:
    m_Center: {x: 0, y: 0, z: 0}
    m_Extent: {x: 0, y: 0, z: 0}
  m_ClipBindingConstant:
    genericBindings: []
    pptrCurveMapping: []
  m_AnimationClipSettings:
    serializedVersion: 2
    m_AdditiveReferencePoseClip: {fileID: 0}
    m_AdditiveReferencePoseTime: 0
    m_StartTime: 0
    m_StopTime: 0.8333333
    m_OrientationOffsetY: 0
    m_Level: 0
    m_CycleOffset: 0
    m_HasAdditiveReferencePose: 0
    m_LoopTime: 1
    m_LoopBlend: 0
    m_LoopBlendOrientation: 0
    m_LoopBlendPositionY: 0
    m_LoopBlendPositionXZ: 0
    m_KeepOriginalOrientation: 0
    m_KeepOriginalPositionY: 1
    m_KeepOriginalPositionXZ: 0
    m_HeightFromFeet: 0
    m_Mirror: 0
  m_EditorCurves: []
  m_EulerEditorCurves: []
  m_HasGenericRootTransform: 0
  m_HasMotionFloatCurves: 0
  m_Events: []
