%YAML 1.1
%TAG !u! tag:unity3d.com,2011:
--- !u!114 &11400000
MonoBehaviour:
  m_ObjectHideFlags: 0
  m_CorrespondingSourceObject: {fileID: 0}
  m_PrefabInstance: {fileID: 0}
  m_PrefabAsset: {fileID: 0}
  m_GameObject: {fileID: 0}
  m_Enabled: 1
  m_EditorHideFlags: 0
  m_Script: {fileID: 11500000, guid: 353fff1e6907860488da09ec60a3e125, type: 3}
  m_Name: T10.Below 3
  m_EditorClassIdentifier: 
  _optionName: It should be within the day, I'm not sure exaclty when, but it will
    be today for certain.
  _score: 10
  _nextDialogue: {fileID: 11400000, guid: ab9e1adb7d90120489fb913ac566b9a9, type: 2}
  _critism: Tim wanted a specific time, however he understood you have other tasks.
