%YAML 1.1
%TAG !u! tag:unity3d.com,2011:
--- !u!114 &11400000
MonoBehaviour:
  m_ObjectHideFlags: 0
  m_CorrespondingSourceObject: {fileID: 0}
  m_PrefabInstance: {fileID: 0}
  m_PrefabAsset: {fileID: 0}
  m_GameObject: {fileID: 0}
  m_Enabled: 1
  m_EditorHideFlags: 0
  m_Script: {fileID: 11500000, guid: c6ecc9956564a1a479e1378cd6fd88c4, type: 3}
  m_Name: 23.Karen
  m_EditorClassIdentifier: 
  _character: {fileID: 11400000, guid: 960d4a2528e5d5746b8a3b9fee6e2c75, type: 2}
  _sentence:
  - '"..."'
  - '"Ahem, I am looking for the manager of this department, I need her help! Can
    you go and get her?"'
  _listOptions:
  - {fileID: 11400000, guid: 4857a15d3b9713142820d6f61605b53a, type: 2}
  - {fileID: 11400000, guid: 4b6e61a416f44854492f332012c90ef0, type: 2}
  - {fileID: 11400000, guid: 19e0c9ce32930b946b4355a3aa620200, type: 2}
  - {fileID: 11400000, guid: 9963b7ff58fd0dc438d81ea3d2a21a6b, type: 2}
  _isInPerson: 1
  _nextDialogue: []
  isComplete: 1
