%YAML 1.1
%TAG !u! tag:unity3d.com,2011:
--- !u!114 &11400000
MonoBehaviour:
  m_ObjectHideFlags: 0
  m_CorrespondingSourceObject: {fileID: 0}
  m_PrefabInstance: {fileID: 0}
  m_PrefabAsset: {fileID: 0}
  m_GameObject: {fileID: 0}
  m_Enabled: 1
  m_EditorHideFlags: 0
  m_Script: {fileID: 11500000, guid: c6ecc9956564a1a479e1378cd6fd88c4, type: 3}
  m_Name: 24.Karen Worst Response 1
  m_EditorClassIdentifier: 
  _character: {fileID: 11400000, guid: 960d4a2528e5d5746b8a3b9fee6e2c75, type: 2}
  _sentence:
  - '"You don''t know? Why don''t they teach you that during orientation? How do you
    not remember something as simple as your supervisors schedule?" '
  - '"Well, maybe I could let you help me with my issue..."'
  - '"I keep getting emails telling me to reset my password from this office! It is
    very frustrating, everyday I open my inbox to at least ten emails telling me to
    reset."'
  - '"Do you think someone is trying to pull a prank on me? I would like you to figure
    out who it is."'
  _listOptions:
  - {fileID: 11400000, guid: dd53afdd34d6c2a469009e1988dc527d, type: 2}
  - {fileID: 11400000, guid: 8f15786502cde9c47b160646340a05c5, type: 2}
  - {fileID: 11400000, guid: 83ee6dcdaf5bc374ba232af257529c8a, type: 2}
  - {fileID: 11400000, guid: 950ed64a5ab81c242b4c2433dea0d2ee, type: 2}
  _isInPerson: 1
  _nextDialogue: []
  isComplete: 0
