%YAML 1.1
%TAG !u! tag:unity3d.com,2011:
--- !u!114 &11400000
MonoBehaviour:
  m_ObjectHideFlags: 0
  m_CorrespondingSourceObject: {fileID: 0}
  m_PrefabInstance: {fileID: 0}
  m_PrefabAsset: {fileID: 0}
  m_GameObject: {fileID: 0}
  m_Enabled: 1
  m_EditorHideFlags: 0
  m_Script: {fileID: 11500000, guid: c6ecc9956564a1a479e1378cd6fd88c4, type: 3}
  m_Name: 32. Karen Best Response 2
  m_EditorClassIdentifier: 
  _character: {fileID: 11400000, guid: 960d4a2528e5d5746b8a3b9fee6e2c75, type: 2}
  _sentence:
  - '"Yes, that sounds very reasonable, I hope this issue isn''t affecting everyone!"'
  - '"But what does it mean if the emails going into my spam folder?"'
  _listOptions:
  - {fileID: 11400000, guid: 52d1e57db9d7a704aa5c75164101ac97, type: 2}
  - {fileID: 11400000, guid: 5a2a2a0c5feb3634bab0b464862fa4d2, type: 2}
  _isInPerson: 1
  _nextDialogue: []
  isComplete: 0
