%YAML 1.1
%TAG !u! tag:unity3d.com,2011:
--- !u!114 &11400000
MonoBehaviour:
  m_ObjectHideFlags: 0
  m_CorrespondingSourceObject: {fileID: 0}
  m_PrefabInstance: {fileID: 0}
  m_PrefabAsset: {fileID: 0}
  m_GameObject: {fileID: 0}
  m_Enabled: 1
  m_EditorHideFlags: 0
  m_Script: {fileID: 11500000, guid: c6ecc9956564a1a479e1378cd6fd88c4, type: 3}
  m_Name: 33. Karen Worst Response 3
  m_EditorClassIdentifier: 
  _character: {fileID: 11400000, guid: 960d4a2528e5d5746b8a3b9fee6e2c75, type: 2}
  _sentence:
  - '...'
  - '...'
  - '...'
  - '"That''s it! I am done speaking with you! I just can''t believe someone as rude
    as you is working here!" '
  - '"I hope they teach you some manners once they hear about this!"'
  _listOptions:
  - {fileID: 11400000, guid: b92b2e27dde12cb4baf97800c2ebdbc4, type: 2}
  - {fileID: 11400000, guid: 66f6bf80bc1a46b48835eb0b6d6afb08, type: 2}
  _isInPerson: 1
  _nextDialogue: []
  isComplete: 0
