%YAML 1.1
%TAG !u! tag:unity3d.com,2011:
--- !u!114 &11400000
MonoBehaviour:
  m_ObjectHideFlags: 0
  m_CorrespondingSourceObject: {fileID: 0}
  m_PrefabInstance: {fileID: 0}
  m_PrefabAsset: {fileID: 0}
  m_GameObject: {fileID: 0}
  m_Enabled: 1
  m_EditorHideFlags: 0
  m_Script: {fileID: 11500000, guid: 353fff1e6907860488da09ec60a3e125, type: 3}
  m_Name: K14. Below 4
  m_EditorClassIdentifier: 
  _optionName: Good-bye, I hope you have a wonderful day.
  _score: 5
  _nextDialogue: {fileID: 11400000, guid: d7d7550053af076419935b68208077b6, type: 2}
  _critism: Karens contempt for you went down a little.
