%YAML 1.1
%TAG !u! tag:unity3d.com,2011:
--- !u!114 &11400000
MonoBehaviour:
  m_ObjectHideFlags: 0
  m_CorrespondingSourceObject: {fileID: 0}
  m_PrefabInstance: {fileID: 0}
  m_PrefabAsset: {fileID: 0}
  m_GameObject: {fileID: 0}
  m_Enabled: 1
  m_EditorHideFlags: 0
  m_Script: {fileID: 11500000, guid: 353fff1e6907860488da09ec60a3e125, type: 3}
  m_Name: K3.Above
  m_EditorClassIdentifier: 
  _optionName: I believe I am able to assist you with what problem you are having.
    Please tell me.
  _score: 10
  _nextDialogue: {fileID: 11400000, guid: e083d9ea43b542344991a3379e3efeab, type: 2}
  _critism: 'Although you are not a manager, Karen did want someone to help her as
    soon as possible. '
