%YAML 1.1
%TAG !u! tag:unity3d.com,2011:
--- !u!114 &11400000
MonoBehaviour:
  m_ObjectHideFlags: 0
  m_CorrespondingSourceObject: {fileID: 0}
  m_PrefabInstance: {fileID: 0}
  m_PrefabAsset: {fileID: 0}
  m_GameObject: {fileID: 0}
  m_Enabled: 1
  m_EditorHideFlags: 0
  m_Script: {fileID: 11500000, guid: 353fff1e6907860488da09ec60a3e125, type: 3}
  m_Name: K4.Best
  m_EditorClassIdentifier: 
  _optionName: Taylor is busy right now with evaluations, however I am here and able
    to assist you with the issue. What do you need help with?
  _score: 20
  _nextDialogue: {fileID: 11400000, guid: a8b418c00c4697c4599a8f776eeda62c, type: 2}
  _critism: Karen was impressed with your thoughtful response.
