%YAML 1.1
%TAG !u! tag:unity3d.com,2011:
--- !u!114 &11400000
MonoBehaviour:
  m_ObjectHideFlags: 0
  m_CorrespondingSourceObject: {fileID: 0}
  m_PrefabInstance: {fileID: 0}
  m_PrefabAsset: {fileID: 0}
  m_GameObject: {fileID: 0}
  m_Enabled: 1
  m_EditorHideFlags: 0
  m_Script: {fileID: 11500000, guid: bcd6bf86f2950a34597f6740f791cdc1, type: 3}
  m_Name: TestTicket
  m_EditorClassIdentifier: 
  header: Test Header
  description: This ticket is about a test scenario.
  isComplete: 1
  expandedTicket: {fileID: 0}
  playerChoices: []
