%YAML 1.1
%TAG !u! tag:unity3d.com,2011:
--- !u!114 &11400000
MonoBehaviour:
  m_ObjectHideFlags: 0
  m_CorrespondingSourceObject: {fileID: 0}
  m_PrefabInstance: {fileID: 0}
  m_PrefabAsset: {fileID: 0}
  m_GameObject: {fileID: 0}
  m_Enabled: 1
  m_EditorHideFlags: 0
  m_Script: {fileID: 11500000, guid: c6ecc9956564a1a479e1378cd6fd88c4, type: 3}
  m_Name: 3.First time client
  m_EditorClassIdentifier: 
  _character: {fileID: 11400000, guid: fb41586adef80c14e83b89acfe35349b, type: 2}
  _sentence:
  - '"Hello?"'
  _listOptions: []
  _isInPerson: 0
  _nextDialogue:
  - {fileID: 11400000, guid: 69e62b5bafddad94e981d68542463967, type: 2}
  isComplete: 1
