%YAML 1.1
%TAG !u! tag:unity3d.com,2011:
--- !u!114 &11400000
MonoBehaviour:
  m_ObjectHideFlags: 0
  m_CorrespondingSourceObject: {fileID: 0}
  m_PrefabInstance: {fileID: 0}
  m_PrefabAsset: {fileID: 0}
  m_GameObject: {fileID: 0}
  m_Enabled: 1
  m_EditorHideFlags: 0
  m_Script: {fileID: 11500000, guid: c6ecc9956564a1a479e1378cd6fd88c4, type: 3}
  m_Name: 8.Tutorial
  m_EditorClassIdentifier: 
  _character: {fileID: 11400000, guid: fb41586adef80c14e83b89acfe35349b, type: 2}
  _sentence:
  - '"Hello, Yes this is Bob."'
  - '"My phone has been giving me problems when I am trying to access the web."'
  - '"My phone says it has full internet connection but when I attempt to go on the
    web it says it has ''no internet connection''."'
  _listOptions:
  - {fileID: 11400000, guid: 38f0755acb31daa49aaefd60ebe72681, type: 2}
  - {fileID: 11400000, guid: d58cd25f0bf0cb74c9d94d2ac6945e9a, type: 2}
  - {fileID: 11400000, guid: 162c8843c7fdb18449f2a3d97aabe30e, type: 2}
  - {fileID: 11400000, guid: a799deae0546e5147b77acde02969faf, type: 2}
  _isInPerson: 0
  _nextDialogue: []
  isComplete: 0
